PM566 Final Project
…
tb<-dcast(setDT(arrest), Arrest_Date~Descent_Code, value.var = "Arrest_Date",length)[]

tb_my<-tb
tb_my$month<-month(tb$Arrest_Date)
tb_my$year<-year(tb$Arrest_Date)

arrest %>% 
  group_by_if(is.numeric %>% Negate) %>%
  summarize_all(sum)

## # A tibble: 103,660 x 29
## # Groups:   Report_Type, Arrest_Date, Area_Name, Sex_Code, Descent_Code,
## #   Charge_Group_Description, Arrest_Type_Code, Charge, Charge_Description,
## #   Disposition_Description, Address, Cross_Street, Location, Booking_Date,
## #   Booking_Location [103,486]
##    Report_Type Arrest_Date Area_Name   Sex_Code Descent_Code Charge_Group_Descr~
##    <chr>       <date>      <chr>       <chr>    <chr>        <chr>              
##  1 BOOKING     2020-01-01  77th Street F        B            Other Assaults     
##  2 BOOKING     2020-01-01  77th Street F        H            Aggravated Assault 
##  3 BOOKING     2020-01-01  77th Street M        B            Larceny            
##  4 BOOKING     2020-01-01  77th Street M        B            Miscellaneous Othe~
##  5 BOOKING     2020-01-01  77th Street M        B            Narcotic Drug Laws 
##  6 BOOKING     2020-01-01  77th Street M        B            Other Assaults     
##  7 BOOKING     2020-01-01  77th Street M        B            Vehicle Theft      
##  8 BOOKING     2020-01-01  77th Street M        B            Weapon (carry/poss)
##  9 BOOKING     2020-01-01  77th Street M        H            Against Family/Chi~
## 10 BOOKING     2020-01-01  77th Street M        H            Aggravated Assault 
## # ... with 103,650 more rows, and 23 more variables: Arrest_Type_Code <chr>,
## #   Charge <chr>, Charge_Description <chr>, Disposition_Description <chr>,
## #   Address <chr>, Cross_Street <chr>, Location <chr>, Booking_Date <date>,
## #   Booking_Location <chr>, time_cat <fct>, Report_ID <dbl>, Time <int>,
## #   Area_ID <int>, Reporting_District <int>, Age <int>,
## #   Charge_Group_Code <int>, LAT <dbl>, LON <dbl>, Booking_Time <int>,
## #   Booking_Location_Code <int>, year <dbl>, month <dbl>, day <int>
…
